task2/waveform.vcd
$date
	Mon Feb 17 08:40:43 2025
$end

$version
	Synopsys VCS version W-2024.09-SP1_Full64
$end

$timescale
	10ps
$end

$comment Csum: 1 452789cd18e03fd1 $end


$scope module top $end
$var reg 1 ! clk $end

$scope module mif $end
$var reg 1 " clk $end
$var reg 1 # read $end
$var reg 1 $ write $end
$var reg 5 % addr [4:0] $end
$var reg 8 & data_in [7:0] $end
$var reg 8 ' data_out [7:0] $end

$scope task write_mem $end
$var reg 5 ( waddr [4:0] $end
$var reg 8 ) wdata [7:0] $end
$var reg 1 * debug $end
$upscope $end


$scope task read_mem $end
$var reg 5 + raddr [4:0] $end
$var reg 8 , rdata [7:0] $end
$var reg 1 - debug $end
$upscope $end

$upscope $end


$scope module test $end
$var reg 1 . debug $end
$var reg 8 / rdata [7:0] $end
$var reg 32 0 error_status [31:0] $end
$var reg 8 1 rand_data [7:0] $end

$scope function checkit $end
$var reg 5 2 address [4:0] $end
$var reg 8 3 actual [7:0] $end
$var reg 8 4 expected [7:0] $end
$upscope $end


$scope function printstatus $end
$var reg 32 5 status [31:0] $end
$upscope $end


$scope begin memtest $end

$scope begin unnamed$$_0 $end
$upscope $end


$scope begin unnamed$$_1 $end
$upscope $end


$scope begin unnamed$$_2 $end
$upscope $end


$scope begin unnamed$$_3 $end
$upscope $end


$scope begin unnamed$$_4 $end
$upscope $end


$scope begin unnamed$$_5 $end
$upscope $end

$upscope $end

$upscope $end


$scope module memory $end
$upscope $end

$upscope $end

$enddefinitions $end

#0
$dumpvars
0!
1.
bxxxxxxxx 3
bxxxxx 2
bxxxxxxxx 4
bxxxxxxxx 1
bxxxxxxxx /
b00000000000000000000000000000000 0
b00000000000000000000000000000000 5
x-
1*
bxxxxxxxx '
bxxxxxxxx &
bxxxxx %
bxxxxx +
bxxxxxxxx ,
b00000 (
b00000000 )
0"
x#
x$
$end
#500
1!
1"
#1000
0!
0"
1$
0#
b00000 %
b00000000 &
#1500
1!
1"
#2000
0!
0"
b00001 (
0$
#2500
1!
1"
#3000
0!
0"
1$
b00001 %
#3500
1!
1"
#4000
0!
0"
b00010 (
0$
#4500
1!
1"
#5000
0!
0"
1$
b00010 %
#5500
1!
1"
#6000
0!
0"
b00011 (
0$
#6500
1!
1"
#7000
0!
0"
1$
b00011 %
#7500
1!
1"
#8000
0!
0"
b00100 (
0$
#8500
1!
1"
#9000
0!
0"
1$
b00100 %
#9500
1!
1"
#10000
0!
0"
b00101 (
0$
#10500
1!
1"
#11000
0!
0"
1$
b00101 %
#11500
1!
1"
#12000
0!
0"
b00110 (
0$
#12500
1!
1"
#13000
0!
0"
1$
b00110 %
#13500
1!
1"
#14000
0!
0"
b00111 (
0$
#14500
1!
1"
#15000
0!
0"
1$
b00111 %
#15500
1!
1"
#16000
0!
0"
b01000 (
0$
#16500
1!
1"
#17000
0!
0"
1$
b01000 %
#17500
1!
1"
#18000
0!
0"
b01001 (
0$
#18500
1!
1"
#19000
0!
0"
1$
b01001 %
#19500
1!
1"
#20000
0!
0"
b01010 (
0$
#20500
1!
1"
#21000
0!
0"
1$
b01010 %
#21500
1!
1"
#22000
0!
0"
b01011 (
0$
#22500
1!
1"
#23000
0!
0"
1$
b01011 %
#23500
1!
1"
#24000
0!
0"
b01100 (
0$
#24500
1!
1"
#25000
0!
0"
1$
b01100 %
#25500
1!
1"
#26000
0!
0"
b01101 (
0$
#26500
1!
1"
#27000
0!
0"
1$
b01101 %
#27500
1!
1"
#28000
0!
0"
b01110 (
0$
#28500
1!
1"
#29000
0!
0"
1$
b01110 %
#29500
1!
1"
#30000
0!
0"
b01111 (
0$
#30500
1!
1"
#31000
0!
0"
1$
b01111 %
#31500
1!
1"
#32000
0!
0"
b10000 (
0$
#32500
1!
1"
#33000
0!
0"
1$
b10000 %
#33500
1!
1"
#34000
0!
0"
b10001 (
0$
#34500
1!
1"
#35000
0!
0"
1$
b10001 %
#35500
1!
1"
#36000
0!
0"
b10010 (
0$
#36500
1!
1"
#37000
0!
0"
1$
b10010 %
#37500
1!
1"
#38000
0!
0"
b10011 (
0$
#38500
1!
1"
#39000
0!
0"
1$
b10011 %
#39500
1!
1"
#40000
0!
0"
b10100 (
0$
#40500
1!
1"
#41000
0!
0"
1$
b10100 %
#41500
1!
1"
#42000
0!
0"
b10101 (
0$
#42500
1!
1"
#43000
0!
0"
1$
b10101 %
#43500
1!
1"
#44000
0!
0"
b10110 (
0$
#44500
1!
1"
#45000
0!
0"
1$
b10110 %
#45500
1!
1"
#46000
0!
0"
b10111 (
0$
#46500
1!
1"
#47000
0!
0"
1$
b10111 %
#47500
1!
1"
#48000
0!
0"
b11000 (
0$
#48500
1!
1"
#49000
0!
0"
1$
b11000 %
#49500
1!
1"
#50000
0!
0"
b11001 (
0$
#50500
1!
1"
#51000
0!
0"
1$
b11001 %
#51500
1!
1"
#52000
0!
0"
b11010 (
0$
#52500
1!
1"
#53000
0!
0"
1$
b11010 %
#53500
1!
1"
#54000
0!
0"
b11011 (
0$
#54500
1!
1"
#55000
0!
0"
1$
b11011 %
#55500
1!
1"
#56000
0!
0"
b11100 (
0$
#56500
1!
1"
#57000
0!
0"
1$
b11100 %
#57500
1!
1"
#58000
0!
0"
b11101 (
0$
#58500
1!
1"
#59000
0!
0"
1$
b11101 %
#59500
1!
1"
#60000
0!
0"
b11110 (
0$
#60500
1!
1"
#61000
0!
0"
1$
b11110 %
#61500
1!
1"
#62000
0!
0"
b11111 (
0$
#62500
1!
1"
#63000
0!
0"
1$
b11111 %
#63500
1!
1"
#64000
0!
0"
b00000 +
1-
0$
#64500
1!
1"
#65000
0!
0"
1#
b00000 %
#65500
1!
1"
b00000000 '
#66000
0!
0"
b00000000 ,
b00000 2
b00000000 3
b00000000 4
b00000000 /
b00001 +
0#
#66500
1!
1"
#67000
0!
0"
1#
b00001 %
#67500
1!
1"
#68000
0!
0"
b00001 2
b00010 +
0#
#68500
1!
1"
#69000
0!
0"
1#
b00010 %
#69500
1!
1"
#70000
0!
0"
b00010 2
b00011 +
0#
#70500
1!
1"
#71000
0!
0"
1#
b00011 %
#71500
1!
1"
#72000
0!
0"
b00011 2
b00100 +
0#
#72500
1!
1"
#73000
0!
0"
1#
b00100 %
#73500
1!
1"
#74000
0!
0"
b00100 2
b00101 +
0#
#74500
1!
1"
#75000
0!
0"
1#
b00101 %
#75500
1!
1"
#76000
0!
0"
b00101 2
b00110 +
0#
#76500
1!
1"
#77000
0!
0"
1#
b00110 %
#77500
1!
1"
#78000
0!
0"
b00110 2
b00111 +
0#
#78500
1!
1"
#79000
0!
0"
1#
b00111 %
#79500
1!
1"
#80000
0!
0"
b00111 2
b01000 +
0#
#80500
1!
1"
#81000
0!
0"
1#
b01000 %
#81500
1!
1"
#82000
0!
0"
b01000 2
b01001 +
0#
#82500
1!
1"
#83000
0!
0"
1#
b01001 %
#83500
1!
1"
#84000
0!
0"
b01001 2
b01010 +
0#
#84500
1!
1"
#85000
0!
0"
1#
b01010 %
#85500
1!
1"
#86000
0!
0"
b01010 2
b01011 +
0#
#86500
1!
1"
#87000
0!
0"
1#
b01011 %
#87500
1!
1"
#88000
0!
0"
b01011 2
b01100 +
0#
#88500
1!
1"
#89000
0!
0"
1#
b01100 %
#89500
1!
1"
#90000
0!
0"
b01100 2
b01101 +
0#
#90500
1!
1"
#91000
0!
0"
1#
b01101 %
#91500
1!
1"
#92000
0!
0"
b01101 2
b01110 +
0#
#92500
1!
1"
#93000
0!
0"
1#
b01110 %
#93500
1!
1"
#94000
0!
0"
b01110 2
b01111 +
0#
#94500
1!
1"
#95000
0!
0"
1#
b01111 %
#95500
1!
1"
#96000
0!
0"
b01111 2
b10000 +
0#
#96500
1!
1"
#97000
0!
0"
1#
b10000 %
#97500
1!
1"
#98000
0!
0"
b10000 2
b10001 +
0#
#98500
1!
1"
#99000
0!
0"
1#
b10001 %
#99500
1!
1"
#100000
0!
0"
b10001 2
b10010 +
0#
#100500
1!
1"
#101000
0!
0"
1#
b10010 %
#101500
1!
1"
#102000
0!
0"
b10010 2
b10011 +
0#
#102500
1!
1"
#103000
0!
0"
1#
b10011 %
#103500
1!
1"
#104000
0!
0"
b10011 2
b10100 +
0#
#104500
1!
1"
#105000
0!
0"
1#
b10100 %
#105500
1!
1"
#106000
0!
0"
b10100 2
b10101 +
0#
#106500
1!
1"
#107000
0!
0"
1#
b10101 %
#107500
1!
1"
#108000
0!
0"
b10101 2
b10110 +
0#
#108500
1!
1"
#109000
0!
0"
1#
b10110 %
#109500
1!
1"
#110000
0!
0"
b10110 2
b10111 +
0#
#110500
1!
1"
#111000
0!
0"
1#
b10111 %
#111500
1!
1"
#112000
0!
0"
b10111 2
b11000 +
0#
#112500
1!
1"
#113000
0!
0"
1#
b11000 %
#113500
1!
1"
#114000
0!
0"
b11000 2
b11001 +
0#
#114500
1!
1"
#115000
0!
0"
1#
b11001 %
#115500
1!
1"
#116000
0!
0"
b11001 2
b11010 +
0#
#116500
1!
1"
#117000
0!
0"
1#
b11010 %
#117500
1!
1"
#118000
0!
0"
b11010 2
b11011 +
0#
#118500
1!
1"
#119000
0!
0"
1#
b11011 %
#119500
1!
1"
#120000
0!
0"
b11011 2
b11100 +
0#
#120500
1!
1"
#121000
0!
0"
1#
b11100 %
#121500
1!
1"
#122000
0!
0"
b11100 2
b11101 +
0#
#122500
1!
1"
#123000
0!
0"
1#
b11101 %
#123500
1!
1"
#124000
0!
0"
b11101 2
b11110 +
0#
#124500
1!
1"
#125000
0!
0"
1#
b11110 %
#125500
1!
1"
#126000
0!
0"
b11110 2
b11111 +
0#
#126500
1!
1"
#127000
0!
0"
1#
b11111 %
#127500
1!
1"
#128000
0!
0"
b11111 2
b00000 (
0#
#128500
1!
1"
#129000
0!
0"
1$
b00000 %
#129500
1!
1"
#130000
0!
0"
b00001 (
b00000001 )
0$
#130500
1!
1"
#131000
0!
0"
1$
b00001 %
b00000001 &
#131500
1!
1"
#132000
0!
0"
b00010 (
b00000010 )
0$
#132500
1!
1"
#133000
0!
0"
1$
b00010 %
b00000010 &
#133500
1!
1"
#134000
0!
0"
b00011 (
b00000011 )
0$
#134500
1!
1"
#135000
0!
0"
1$
b00011 %
b00000011 &
#135500
1!
1"
#136000
0!
0"
b00100 (
b00000100 )
0$
#136500
1!
1"
#137000
0!
0"
1$
b00100 %
b00000100 &
#137500
1!
1"
#138000
0!
0"
b00101 (
b00000101 )
0$
#138500
1!
1"
#139000
0!
0"
1$
b00101 %
b00000101 &
#139500
1!
1"
#140000
0!
0"
b00110 (
b00000110 )
0$
#140500
1!
1"
#141000
0!
0"
1$
b00110 %
b00000110 &
#141500
1!
1"
#142000
0!
0"
b00111 (
b00000111 )
0$
#142500
1!
1"
#143000
0!
0"
1$
b00111 %
b00000111 &
#143500
1!
1"
#144000
0!
0"
b01000 (
b00001000 )
0$
#144500
1!
1"
#145000
0!
0"
1$
b01000 %
b00001000 &
#145500
1!
1"
#146000
0!
0"
b01001 (
b00001001 )
0$
#146500
1!
1"
#147000
0!
0"
1$
b01001 %
b00001001 &
#147500
1!
1"
#148000
0!
0"
b01010 (
b00001010 )
0$
#148500
1!
1"
#149000
0!
0"
1$
b01010 %
b00001010 &
#149500
1!
1"
#150000
0!
0"
b01011 (
b00001011 )
0$
#150500
1!
1"
#151000
0!
0"
1$
b01011 %
b00001011 &
#151500
1!
1"
#152000
0!
0"
b01100 (
b00001100 )
0$
#152500
1!
1"
#153000
0!
0"
1$
b01100 %
b00001100 &
#153500
1!
1"
#154000
0!
0"
b01101 (
b00001101 )
0$
#154500
1!
1"
#155000
0!
0"
1$
b01101 %
b00001101 &
#155500
1!
1"
#156000
0!
0"
b01110 (
b00001110 )
0$
#156500
1!
1"
#157000
0!
0"
1$
b01110 %
b00001110 &
#157500
1!
1"
#158000
0!
0"
b01111 (
b00001111 )
0$
#158500
1!
1"
#159000
0!
0"
1$
b01111 %
b00001111 &
#159500
1!
1"
#160000
0!
0"
b10000 (
b00010000 )
0$
#160500
1!
1"
#161000
0!
0"
1$
b10000 %
b00010000 &
#161500
1!
1"
#162000
0!
0"
b10001 (
b00010001 )
0$
#162500
1!
1"
#163000
0!
0"
1$
b10001 %
b00010001 &
#163500
1!
1"
#164000
0!
0"
b10010 (
b00010010 )
0$
#164500
1!
1"
#165000
0!
0"
1$
b10010 %
b00010010 &
#165500
1!
1"
#166000
0!
0"
b10011 (
b00010011 )
0$
#166500
1!
1"
#167000
0!
0"
1$
b10011 %
b00010011 &
#167500
1!
1"
#168000
0!
0"
b10100 (
b00010100 )
0$
#168500
1!
1"
#169000
0!
0"
1$
b10100 %
b00010100 &
#169500
1!
1"
#170000
0!
0"
b10101 (
b00010101 )
0$
#170500
1!
1"
#171000
0!
0"
1$
b10101 %
b00010101 &
#171500
1!
1"
#172000
0!
0"
b10110 (
b00010110 )
0$
#172500
1!
1"
#173000
0!
0"
1$
b10110 %
b00010110 &
#173500
1!
1"
#174000
0!
0"
b10111 (
b00010111 )
0$
#174500
1!
1"
#175000
0!
0"
1$
b10111 %
b00010111 &
#175500
1!
1"
#176000
0!
0"
b11000 (
b00011000 )
0$
#176500
1!
1"
#177000
0!
0"
1$
b11000 %
b00011000 &
#177500
1!
1"
#178000
0!
0"
b11001 (
b00011001 )
0$
#178500
1!
1"
#179000
0!
0"
1$
b11001 %
b00011001 &
#179500
1!
1"
#180000
0!
0"
b11010 (
b00011010 )
0$
#180500
1!
1"
#181000
0!
0"
1$
b11010 %
b00011010 &
#181500
1!
1"
#182000
0!
0"
b11011 (
b00011011 )
0$
#182500
1!
1"
#183000
0!
0"
1$
b11011 %
b00011011 &
#183500
1!
1"
#184000
0!
0"
b11100 (
b00011100 )
0$
#184500
1!
1"
#185000
0!
0"
1$
b11100 %
b00011100 &
#185500
1!
1"
#186000
0!
0"
b11101 (
b00011101 )
0$
#186500
1!
1"
#187000
0!
0"
1$
b11101 %
b00011101 &
#187500
1!
1"
#188000
0!
0"
b11110 (
b00011110 )
0$
#188500
1!
1"
#189000
0!
0"
1$
b11110 %
b00011110 &
#189500
1!
1"
#190000
0!
0"
b11111 (
b00011111 )
0$
#190500
1!
1"
#191000
0!
0"
1$
b11111 %
b00011111 &
#191500
1!
1"
#192000
0!
0"
b00000 +
0$
#192500
1!
1"
#193000
0!
0"
1#
b00000 %
#193500
1!
1"
#194000
0!
0"
b00000 2
b00001 +
0#
#194500
1!
1"
#195000
0!
0"
1#
b00001 %
#195500
1!
1"
b00000001 '
#196000
0!
0"
b00000001 ,
b00001 2
b00000001 3
b00000001 4
b00000001 /
b00010 +
0#
#196500
1!
1"
#197000
0!
0"
1#
b00010 %
#197500
1!
1"
b00000010 '
#198000
0!
0"
b00000010 ,
b00010 2
b00000010 3
b00000010 4
b00000010 /
b00011 +
0#
#198500
1!
1"
#199000
0!
0"
1#
b00011 %
#199500
1!
1"
b00000011 '
#200000
0!
0"
b00000011 ,
b00011 2
b00000011 3
b00000011 4
b00000011 /
b00100 +
0#
#200500
1!
1"
#201000
0!
0"
1#
b00100 %
#201500
1!
1"
b00000100 '
#202000
0!
0"
b00000100 ,
b00100 2
b00000100 3
b00000100 4
b00000100 /
b00101 +
0#
#202500
1!
1"
#203000
0!
0"
1#
b00101 %
#203500
1!
1"
b00000101 '
#204000
0!
0"
b00000101 ,
b00101 2
b00000101 3
b00000101 4
b00000101 /
b00110 +
0#
#204500
1!
1"
#205000
0!
0"
1#
b00110 %
#205500
1!
1"
b00000110 '
#206000
0!
0"
b00000110 ,
b00110 2
b00000110 3
b00000110 4
b00000110 /
b00111 +
0#
#206500
1!
1"
#207000
0!
0"
1#
b00111 %
#207500
1!
1"
b00000111 '
#208000
0!
0"
b00000111 ,
b00111 2
b00000111 3
b00000111 4
b00000111 /
b01000 +
0#
#208500
1!
1"
#209000
0!
0"
1#
b01000 %
#209500
1!
1"
b00001000 '
#210000
0!
0"
b00001000 ,
b01000 2
b00001000 3
b00001000 4
b00001000 /
b01001 +
0#
#210500
1!
1"
#211000
0!
0"
1#
b01001 %
#211500
1!
1"
b00001001 '
#212000
0!
0"
b00001001 ,
b01001 2
b00001001 3
b00001001 4
b00001001 /
b01010 +
0#
#212500
1!
1"
#213000
0!
0"
1#
b01010 %
#213500
1!
1"
b00001010 '
#214000
0!
0"
b00001010 ,
b01010 2
b00001010 3
b00001010 4
b00001010 /
b01011 +
0#
#214500
1!
1"
#215000
0!
0"
1#
b01011 %
#215500
1!
1"
b00001011 '
#216000
0!
0"
b00001011 ,
b01011 2
b00001011 3
b00001011 4
b00001011 /
b01100 +
0#
#216500
1!
1"
#217000
0!
0"
1#
b01100 %
#217500
1!
1"
b00001100 '
#218000
0!
0"
b00001100 ,
b01100 2
b00001100 3
b00001100 4
b00001100 /
b01101 +
0#
#218500
1!
1"
#219000
0!
0"
1#
b01101 %
#219500
1!
1"
b00001101 '
#220000
0!
0"
b00001101 ,
b01101 2
b00001101 3
b00001101 4
b00001101 /
b01110 +
0#
#220500
1!
1"
#221000
0!
0"
1#
b01110 %
#221500
1!
1"
b00001110 '
#222000
0!
0"
b00001110 ,
b01110 2
b00001110 3
b00001110 4
b00001110 /
b01111 +
0#
#222500
1!
1"
#223000
0!
0"
1#
b01111 %
#223500
1!
1"
b00001111 '
#224000
0!
0"
b00001111 ,
b01111 2
b00001111 3
b00001111 4
b00001111 /
b10000 +
0#
#224500
1!
1"
#225000
0!
0"
1#
b10000 %
#225500
1!
1"
b00010000 '
#226000
0!
0"
b00010000 ,
b10000 2
b00010000 3
b00010000 4
b00010000 /
b10001 +
0#
#226500
1!
1"
#227000
0!
0"
1#
b10001 %
#227500
1!
1"
b00010001 '
#228000
0!
0"
b00010001 ,
b10001 2
b00010001 3
b00010001 4
b00010001 /
b10010 +
0#
#228500
1!
1"
#229000
0!
0"
1#
b10010 %
#229500
1!
1"
b00010010 '
#230000
0!
0"
b00010010 ,
b10010 2
b00010010 3
b00010010 4
b00010010 /
b10011 +
0#
#230500
1!
1"
#231000
0!
0"
1#
b10011 %
#231500
1!
1"
b00010011 '
#232000
0!
0"
b00010011 ,
b10011 2
b00010011 3
b00010011 4
b00010011 /
b10100 +
0#
#232500
1!
1"
#233000
0!
0"
1#
b10100 %
#233500
1!
1"
b00010100 '
#234000
0!
0"
b00010100 ,
b10100 2
b00010100 3
b00010100 4
b00010100 /
b10101 +
0#
#234500
1!
1"
#235000
0!
0"
1#
b10101 %
#235500
1!
1"
b00010101 '
#236000
0!
0"
b00010101 ,
b10101 2
b00010101 3
b00010101 4
b00010101 /
b10110 +
0#
#236500
1!
1"
#237000
0!
0"
1#
b10110 %
#237500
1!
1"
b00010110 '
#238000
0!
0"
b00010110 ,
b10110 2
b00010110 3
b00010110 4
b00010110 /
b10111 +
0#
#238500
1!
1"
#239000
0!
0"
1#
b10111 %
#239500
1!
1"
b00010111 '
#240000
0!
0"
b00010111 ,
b10111 2
b00010111 3
b00010111 4
b00010111 /
b11000 +
0#
#240500
1!
1"
#241000
0!
0"
1#
b11000 %
#241500
1!
1"
b00011000 '
#242000
0!
0"
b00011000 ,
b11000 2
b00011000 3
b00011000 4
b00011000 /
b11001 +
0#
#242500
1!
1"
#243000
0!
0"
1#
b11001 %
#243500
1!
1"
b00011001 '
#244000
0!
0"
b00011001 ,
b11001 2
b00011001 3
b00011001 4
b00011001 /
b11010 +
0#
#244500
1!
1"
#245000
0!
0"
1#
b11010 %
#245500
1!
1"
b00011010 '
#246000
0!
0"
b00011010 ,
b11010 2
b00011010 3
b00011010 4
b00011010 /
b11011 +
0#
#246500
1!
1"
#247000
0!
0"
1#
b11011 %
#247500
1!
1"
b00011011 '
#248000
0!
0"
b00011011 ,
b11011 2
b00011011 3
b00011011 4
b00011011 /
b11100 +
0#
#248500
1!
1"
#249000
0!
0"
1#
b11100 %
#249500
1!
1"
b00011100 '
#250000
0!
0"
b00011100 ,
b11100 2
b00011100 3
b00011100 4
b00011100 /
b11101 +
0#
#250500
1!
1"
#251000
0!
0"
1#
b11101 %
#251500
1!
1"
b00011101 '
#252000
0!
0"
b00011101 ,
b11101 2
b00011101 3
b00011101 4
b00011101 /
b11110 +
0#
#252500
1!
1"
#253000
0!
0"
1#
b11110 %
#253500
1!
1"
b00011110 '
#254000
0!
0"
b00011110 ,
b11110 2
b00011110 3
b00011110 4
b00011110 /
b11111 +
0#
#254500
1!
1"
#255000
0!
0"
1#
b11111 %
#255500
1!
1"
b00011111 '
#256000
0!
0"
b00011111 ,
b11111 2
b00011111 3
b00011111 4
b00011111 /
b01010011 1
b00000 (
b01010011 )
0#
#256500
1!
1"
#257000
0!
0"
1$
b00000 %
b01010011 &
#257500
1!
1"
#258000
0!
0"
b00110000 1
b00001 (
b00110000 )
0$
#258500
1!
1"
#259000
0!
0"
1$
b00001 %
b00110000 &
#259500
1!
1"
#260000
0!
0"
b01111101 1
b00010 (
b01111101 )
0$
#260500
1!
1"
#261000
0!
0"
1$
b00010 %
b01111101 &
#261500
1!
1"
#262000
0!
0"
b00100010 1
b00011 (
b00100010 )
0$
#262500
1!
1"
#263000
0!
0"
1$
b00011 %
b00100010 &
#263500
1!
1"
#264000
0!
0"
b01110111 1
b00100 (
b01110111 )
0$
#264500
1!
1"
#265000
0!
0"
1$
b00100 %
b01110111 &
#265500
1!
1"
#266000
0!
0"
b01110001 1
b00101 (
b01110001 )
0$
#266500
1!
1"
#267000
0!
0"
1$
b00101 %
b01110001 &
#267500
1!
1"
#268000
0!
0"
b01000101 1
b00110 (
b01000101 )
0$
#268500
1!
1"
#269000
0!
0"
1$
b00110 %
b01000101 &
#269500
1!
1"
#270000
0!
0"
b01101100 1
b00111 (
b01101100 )
0$
#270500
1!
1"
#271000
0!
0"
1$
b00111 %
b01101100 &
#271500
1!
1"
#272000
0!
0"
b01001000 1
b01000 (
b01001000 )
0$
#272500
1!
1"
#273000
0!
0"
1$
b01000 %
b01001000 &
#273500
1!
1"
#274000
0!
0"
b01101100 1
b01001 (
b01101100 )
0$
#274500
1!
1"
#275000
0!
0"
1$
b01001 %
b01101100 &
#275500
1!
1"
#276000
0!
0"
b00101100 1
b01010 (
b00101100 )
0$
#276500
1!
1"
#277000
0!
0"
1$
b01010 %
b00101100 &
#277500
1!
1"
#278000
0!
0"
b00101011 1
b01011 (
b00101011 )
0$
#278500
1!
1"
#279000
0!
0"
1$
b01011 %
b00101011 &
#279500
1!
1"
#280000
0!
0"
b00111011 1
b01100 (
b00111011 )
0$
#280500
1!
1"
#281000
0!
0"
1$
b01100 %
b00111011 &
#281500
1!
1"
#282000
0!
0"
b01000101 1
b01101 (
b01000101 )
0$
#282500
1!
1"
#283000
0!
0"
1$
b01101 %
b01000101 &
#283500
1!
1"
#284000
0!
0"
b01110100 1
b01110 (
b01110100 )
0$
#284500
1!
1"
#285000
0!
0"
1$
b01110 %
b01110100 &
#285500
1!
1"
#286000
0!
0"
b01101100 1
b01111 (
b01101100 )
0$
#286500
1!
1"
#287000
0!
0"
1$
b01111 %
b01101100 &
#287500
1!
1"
#288000
0!
0"
b01000111 1
b10000 (
b01000111 )
0$
#288500
1!
1"
#289000
0!
0"
1$
b10000 %
b01000111 &
#289500
1!
1"
#290000
0!
0"
b01001100 1
b10001 (
b01001100 )
0$
#290500
1!
1"
#291000
0!
0"
1$
b10001 %
b01001100 &
#291500
1!
1"
#292000
0!
0"
b01001010 1
b10010 (
b01001010 )
0$
#292500
1!
1"
#293000
0!
0"
1$
b10010 %
b01001010 &
#293500
1!
1"
#294000
0!
0"
b01000110 1
b10011 (
b01000110 )
0$
#294500
1!
1"
#295000
0!
0"
1$
b10011 %
b01000110 &
#295500
1!
1"
#296000
0!
0"
b01000011 1
b10100 (
b01000011 )
0$
#296500
1!
1"
#297000
0!
0"
1$
b10100 %
b01000011 &
#297500
1!
1"
#298000
0!
0"
b00111101 1
b10101 (
b00111101 )
0$
#298500
1!
1"
#299000
0!
0"
1$
b10101 %
b00111101 &
#299500
1!
1"
#300000
0!
0"
b01011100 1
b10110 (
b01011100 )
0$
#300500
1!
1"
#301000
0!
0"
1$
b10110 %
b01011100 &
#301500
1!
1"
#302000
0!
0"
b01111000 1
b10111 (
b01111000 )
0$
#302500
1!
1"
#303000
0!
0"
1$
b10111 %
b01111000 &
#303500
1!
1"
#304000
0!
0"
b01001011 1
b11000 (
b01001011 )
0$
#304500
1!
1"
#305000
0!
0"
1$
b11000 %
b01001011 &
#305500
1!
1"
#306000
0!
0"
b00111011 1
b11001 (
b00111011 )
0$
#306500
1!
1"
#307000
0!
0"
1$
b11001 %
b00111011 &
#307500
1!
1"
#308000
0!
0"
b01110011 1
b11010 (
b01110011 )
0$
#308500
1!
1"
#309000
0!
0"
1$
b11010 %
b01110011 &
#309500
1!
1"
#310000
0!
0"
b01101101 1
b11011 (
b01101101 )
0$
#310500
1!
1"
#311000
0!
0"
1$
b11011 %
b01101101 &
#311500
1!
1"
#312000
0!
0"
b01111100 1
b11100 (
b01111100 )
0$
#312500
1!
1"
#313000
0!
0"
1$
b11100 %
b01111100 &
#313500
1!
1"
#314000
0!
0"
b01110110 1
b11101 (
b01110110 )
0$
#314500
1!
1"
#315000
0!
0"
1$
b11101 %
b01110110 &
#315500
1!
1"
#316000
0!
0"
b01011001 1
b11110 (
b01011001 )
0$
#316500
1!
1"
#317000
0!
0"
1$
b11110 %
b01011001 &
#317500
1!
1"
#318000
0!
0"
b01001001 1
b11111 (
b01001001 )
0$
#318500
1!
1"
#319000
0!
0"
1$
b11111 %
b01001001 &
#319500
1!
1"
#320000
0!
0"
b00000 +
0$
#320500
1!
1"
#321000
0!
0"
1#
b00000 %
#321500
1!
1"
b01010011 '
#322000
0!
0"
b01010011 ,
b00000 2
b01010011 3
b01010011 4
b01010011 /
b00001 +
0#
#322500
1!
1"
#323000
0!
0"
1#
b00001 %
#323500
1!
1"
b00110000 '
#324000
0!
0"
b00110000 ,
b00001 2
b00110000 3
b00110000 4
b00110000 /
b00010 +
0#
#324500
1!
1"
#325000
0!
0"
1#
b00010 %
#325500
1!
1"
b01111101 '
#326000
0!
0"
b01111101 ,
b00010 2
b01111101 3
b01111101 4
b01111101 /
b00011 +
0#
#326500
1!
1"
#327000
0!
0"
1#
b00011 %
#327500
1!
1"
b00100010 '
#328000
0!
0"
b00100010 ,
b00011 2
b00100010 3
b00100010 4
b00100010 /
b00100 +
0#
#328500
1!
1"
#329000
0!
0"
1#
b00100 %
#329500
1!
1"
b01110111 '
#330000
0!
0"
b01110111 ,
b00100 2
b01110111 3
b01110111 4
b01110111 /
b00101 +
0#
#330500
1!
1"
#331000
0!
0"
1#
b00101 %
#331500
1!
1"
b01110001 '
#332000
0!
0"
b01110001 ,
b00101 2
b01110001 3
b01110001 4
b01110001 /
b00110 +
0#
#332500
1!
1"
#333000
0!
0"
1#
b00110 %
#333500
1!
1"
b01000101 '
#334000
0!
0"
b01000101 ,
b00110 2
b01000101 3
b01000101 4
b01000101 /
b00111 +
0#
#334500
1!
1"
#335000
0!
0"
1#
b00111 %
#335500
1!
1"
b01101100 '
#336000
0!
0"
b01101100 ,
b00111 2
b01101100 3
b01101100 4
b01101100 /
b01000 +
0#
#336500
1!
1"
#337000
0!
0"
1#
b01000 %
#337500
1!
1"
b01001000 '
#338000
0!
0"
b01001000 ,
b01000 2
b01001000 3
b01001000 4
b01001000 /
b01001 +
0#
#338500
1!
1"
#339000
0!
0"
1#
b01001 %
#339500
1!
1"
b01101100 '
#340000
0!
0"
b01101100 ,
b01001 2
b01101100 3
b01101100 4
b01101100 /
b01010 +
0#
#340500
1!
1"
#341000
0!
0"
1#
b01010 %
#341500
1!
1"
b00101100 '
#342000
0!
0"
b00101100 ,
b01010 2
b00101100 3
b00101100 4
b00101100 /
b01011 +
0#
#342500
1!
1"
#343000
0!
0"
1#
b01011 %
#343500
1!
1"
b00101011 '
#344000
0!
0"
b00101011 ,
b01011 2
b00101011 3
b00101011 4
b00101011 /
b01100 +
0#
#344500
1!
1"
#345000
0!
0"
1#
b01100 %
#345500
1!
1"
b00111011 '
#346000
0!
0"
b00111011 ,
b01100 2
b00111011 3
b00111011 4
b00111011 /
b01101 +
0#
#346500
1!
1"
#347000
0!
0"
1#
b01101 %
#347500
1!
1"
b01000101 '
#348000
0!
0"
b01000101 ,
b01101 2
b01000101 3
b01000101 4
b01000101 /
b01110 +
0#
#348500
1!
1"
#349000
0!
0"
1#
b01110 %
#349500
1!
1"
b01110100 '
#350000
0!
0"
b01110100 ,
b01110 2
b01110100 3
b01110100 4
b01110100 /
b01111 +
0#
#350500
1!
1"
#351000
0!
0"
1#
b01111 %
#351500
1!
1"
b01101100 '
#352000
0!
0"
b01101100 ,
b01111 2
b01101100 3
b01101100 4
b01101100 /
b10000 +
0#
#352500
1!
1"
#353000
0!
0"
1#
b10000 %
#353500
1!
1"
b01000111 '
#354000
0!
0"
b01000111 ,
b10000 2
b01000111 3
b01000111 4
b01000111 /
b10001 +
0#
#354500
1!
1"
#355000
0!
0"
1#
b10001 %
#355500
1!
1"
b01001100 '
#356000
0!
0"
b01001100 ,
b10001 2
b01001100 3
b01001100 4
b01001100 /
b10010 +
0#
#356500
1!
1"
#357000
0!
0"
1#
b10010 %
#357500
1!
1"
b01001010 '
#358000
0!
0"
b01001010 ,
b10010 2
b01001010 3
b01001010 4
b01001010 /
b10011 +
0#
#358500
1!
1"
#359000
0!
0"
1#
b10011 %
#359500
1!
1"
b01000110 '
#360000
0!
0"
b01000110 ,
b10011 2
b01000110 3
b01000110 4
b01000110 /
b10100 +
0#
#360500
1!
1"
#361000
0!
0"
1#
b10100 %
#361500
1!
1"
b01000011 '
#362000
0!
0"
b01000011 ,
b10100 2
b01000011 3
b01000011 4
b01000011 /
b10101 +
0#
#362500
1!
1"
